CHANGES : FOLDER FOLDER

format : 

[NAME] [DATE] [BRANCH]
[CHANGES]

example : 
[Jono] [12 September 2012] [Master]
[Mengubah nama file menjadi indexjono.php karena pengen]

---------------------------------------------------------------------------------------------------------------------------------------------------
